[
    {
        "@context": "http://schema.org",
        "@type": "TrainReservation",
        "reservationFor": {
            "@type": "TrainTrip",
            "arrivalStation": {
                "@type": "TrainStation",
                "name": "Praha hl.n."
            },
            "arrivalTime": "2017-07-09T17:06:00",
            "departureDay": "2017-07-09",
            "departureStation": {
                "@type": "TrainStation",
                "name": "Brno dolní nádraží"
            },
            "departureTime": "2017-07-09T14:34:00",
            "trainNumber": "RJ 76"
        },
        "reservationNumber": "FXI305",
        "reservationStatus": "http://schema.org/ReservationConfirmed",
        "reservedTicket": {
            "@type": "Ticket",
            "ticketedSeat": {
                "@type": "Seat",
                "seatNumber": "91",
                "seatSection": "26"
            }
        }
    }
]
