[{
    "filter": [
        {
            "match": "(?:FlixMobility|Flix SE)",
            "field": "reservationFor.busCompany.name",
            "mimeType": "application/ld+json"
        }
    ],
    "function": "main",
    "script": "flixbus.js",
    "mimeType": "text/html"
},
{
    "filter": [
        {
            "match": "^https://shop\\.(?:global\\.)?flixbus\\.[a-z]{2,3}/pdfqr/",
            "mimeType": "text/plain",
            "scope": "Descendants"
        }
    ],
    "function": "parsePdfTicket",
    "mimeType": "application/pdf",
    "script": "flixbus.js"
}]
