[{
    "filter": [
        {
            "match": "^06[A-Z0-9]{9}00[A-Z]{2}",
            "mimeType": "text/plain",
            "scope": "Current"
        }
    ],
    "function": "parseRSP6",
    "mimeType": "text/plain",
    "script": "nationalrail.js"
},
{
    "filter": [
        {
            "match": "^06[A-Z0-9]{9}00[A-Z]{2}",
            "mimeType": "text/plain",
            "scope": "Descendants"
        }
    ],
    "function": "parseTicket",
    "mimeType": "application/pdf",
    "script": "nationalrail.js"
}]
