{
    "filter": [
        {
            "field": "passTypeIdentifier",
            "match": "pass.eu.pretix.ticket",
            "mimeType": "application/vnd.apple.pkpass",
            "scope": "Current"
        }
    ],
    "function": "parsePass",
    "mimeType": "application/vnd.apple.pkpass",
    "script": "pretix.js"
}
