[
    {
        "@context": "http://schema.org",
        "@type": "TrainReservation",
        "reservationFor": {
            "@type": "TrainTrip",
            "arrivalPlatform": "6D-E",
            "arrivalStation": {
                "@type": "TrainStation",
                "name": "Hamburg Hbf"
            },
            "arrivalTime": "2022-07-26T18:02:00",
            "departureDay": "2022-07-26",
            "departurePlatform": "5",
            "departureStation": {
                "@type": "TrainStation",
                "name": "Koebenhavn H"
            },
            "departureTime": {
                "@type": "QDateTime",
                "@value": "2022-07-26T13:17:00+02:00",
                "timezone": "Europe/Berlin"
            },
            "trainName": "IC 1197"
        },
        "reservationStatus": "http://schema.org/ReservationConfirmed"
    },
    {
        "@context": "http://schema.org",
        "@type": "TrainReservation",
        "reservationFor": {
            "@type": "TrainTrip",
            "arrivalPlatform": "8",
            "arrivalStation": {
                "@type": "TrainStation",
                "name": "Bremen Hbf"
            },
            "arrivalTime": "2022-07-26T19:41:00",
            "departureDay": "2022-07-26",
            "departurePlatform": "14",
            "departureStation": {
                "@type": "TrainStation",
                "name": "Hamburg Hbf"
            },
            "departureTime": "2022-07-26T18:46:00",
            "trainName": "IC 2307"
        },
        "reservationStatus": "http://schema.org/ReservationConfirmed"
    },
    {
        "@context": "http://schema.org",
        "@type": "TrainReservation",
        "reservationFor": {
            "@type": "TrainTrip",
            "arrivalPlatform": "4",
            "arrivalStation": {
                "@type": "TrainStation",
                "name": "Leer(Ostfriesl)"
            },
            "arrivalTime": "2022-07-26T21:14:00",
            "departureDay": "2022-07-26",
            "departurePlatform": "3",
            "departureStation": {
                "@type": "TrainStation",
                "name": "Bremen Hbf"
            },
            "departureTime": "2022-07-26T19:53:00",
            "trainName": "IC 2034"
        },
        "reservationStatus": "http://schema.org/ReservationConfirmed"
    },
    {
        "@context": "http://schema.org",
        "@type": "BusReservation",
        "reservationFor": {
            "@type": "BusTrip",
            "arrivalBusStop": {
                "@type": "BusStation",
                "name": "Groningen CS Hoofdstation"
            },
            "arrivalTime": "2022-07-26T22:25:00",
            "busName": "Bus 647",
            "departureBusStop": {
                "@type": "BusStation",
                "name": "Leer(Ostfriesl) ZOB/Bahnhof"
            },
            "departureTime": "2022-07-26T21:30:00"
        },
        "reservationStatus": "http://schema.org/ReservationConfirmed"
    },
    {
        "@context": "http://schema.org",
        "@type": "TrainReservation",
        "reservationFor": {
            "@type": "TrainTrip",
            "arrivalPlatform": "14b",
            "arrivalStation": {
                "@type": "TrainStation",
                "name": "Amsterdam Centraal"
            },
            "arrivalTime": {
                "@type": "QDateTime",
                "@value": "2022-07-27T00:52:00+02:00",
                "timezone": "Europe/Berlin"
            },
            "departureDay": "2022-07-26",
            "departurePlatform": "4b",
            "departureStation": {
                "@type": "TrainStation",
                "name": "Groningen"
            },
            "departureTime": "2022-07-26T22:49:00",
            "trainName": "IC 786"
        },
        "reservationStatus": "http://schema.org/ReservationConfirmed"
    }
]
